{
  "environment": "web",
  "format": "html",
  "prefix": "https://storage.googleapis.com",
  "mainga": "UA-49880327-14",
  "updated": "2020-06-26T11:41:55+02:00",
  "id": "tp2",
  "duration": 1,
  "title": "TP2 - Pyramide de tests",
  "authors": "OCTO Technology",
  "summary": "TP2",
  "source": "tp2.md",
  "theme": "",
  "status": [
    "published"
  ],
  "category": [
    "tp",
    "api"
  ],
  "tags": [
    "api",
    "flask"
  ],
  "feedback": "https://gitlab.com/octo-technology/octo-bda/cercle-formation/dsin2/-/issues/new",
  "url": "tp2"
}
